Wisdom about Tennessee STAR
…
Background Information

The Tennessee STAR dataset comes from a large-scale, multi-year educational experiment conducted in the 1980s across dozens of Tennessee schools. In the study, over 6,000 kindergarten through third-grade students were randomly assigned to either small classes (13–17 students), regular-sized classes (22–25 students), or regular-sized classes with a teacher’s aide. The goal was to determine whether smaller class sizes improved academic performance, particularly in mathematics and reading. Academic outcomes were measured using standardized and curriculum-based tests, and the dataset also includes key student and classroom characteristics such as race, sex, school, and class assignment.

Scenarios

Imagine that you are an elementary school principal in Chicago. You want to predict student performance. Fortunately, you have data today for your current students like the data available in the STAR project.

Imagine you work for the Texas Department of Education. You want to understand student performance in small classes, relative to big classes, in Dallas. In Texas, there is data available like the data in the STAR project.

Data

Explore the data. What is the outcome variable? How it is distributed?

# A tibble: 6,325 × 4
   g4math kind             race  yearssmall
    <dbl> <chr>            <chr>      <dbl>
 1     NA regular with aid white          0
 2    706 regular with aid black          0
 3    711 regular with aid white          0
 4    672 small            black          4
 5     NA regular          white          0
 6     NA regular with aid white          0
 7    668 small            white          4
 8     NA regular with aid white          0
 9    709 small            white          4
10    698 regular          white          0
# ℹ 6,315 more rows
…
